Utility Functions to Work with Israeli Central Bureau of Statistics Municipal Data • il.cbs.muni
…
Harmonizing identifiers

CBS files use a numeric locality ID with a variable length, while the il.verse convention is a 4-character string. pad_yishuv_id() fixes that:

df_yishuvim <- read_cbs_yishuv(
  system.file("extdata", "bycode2021.xlsx", package = "il.cbs.muni"),
  cols = c(1, 2)
) |>
  rename(yishuv_name = 1, yishuv_id = 2) |>
  mutate(yishuv_id = pad_yishuv_id(yishuv_id))

df_yishuvim
#> # A tibble: 1,483 × 2
#>    yishuv_name         yishuv_id
#>    <chr>               <chr>    
#>  1 אבו ג'ווייעד (שבט)  0967     
#>  2 אבו גוש             0472     
#>  3 אבו סנאן            0473     
#>  4 אבו סריחאן (שבט)    0935     
#>  5 אבו עבדון (שבט)     0958     
#>  6 אבו עמאר (שבט)      1042     
#>  7 אבו עמרה (שבט)      0932     
#>  8 אבו קורינאת (יישוב) 1342     
#>  9 אבו קורינאת (שבט)   0968     
#> 10 אבו רובייעה (שבט)   0966     
#> # ℹ 1,473 more rows
…
